<svg xmlns="http://www.w3.org/2000/svg" width="20" height="20" viewBox="0 0 20 20">
  <g id="Layer_2" data-name="Layer 2" transform="translate(-2 -1)">
    <path id="checkmark-circle-2" d="M12,2A10,10,0,1,0,22,12,10,10,0,0,0,12,2Zm4.3,7.61-4.57,6a1,1,0,0,1-1.58.01L7.71,12.51a1,1,0,0,1,1.58-1.23l1.63,2.08,3.78-5a1.006,1.006,0,0,1,1.6,1.22Z" transform="translate(0 -1)" fill="#00b55d"/>
  </g>
</svg>
