<svg xmlns="http://www.w3.org/2000/svg" width="135.999" height="136" viewBox="0 0 135.999 136">
  <path id="Path_59" data-name="Path 59" d="M170.644,161.614a7.335,7.335,0,0,1,2.16-5.211l16.9-16.9-16.9-16.9a7.371,7.371,0,1,1,10.424-10.424l22.113,22.115a7.371,7.371,0,0,1,0,10.423l-22.114,22.114a7.371,7.371,0,0,1-12.583-5.212ZM139.5,78.871V93.614a7.371,7.371,0,0,1-14.743,0V86.243H86.243V192.758h38.515v-7.371a7.371,7.371,0,0,1,14.743,0v14.743a7.371,7.371,0,0,1-7.371,7.371H78.871a7.371,7.371,0,0,1-7.371-7.371V78.871A7.371,7.371,0,0,1,78.871,71.5h53.258A7.371,7.371,0,0,1,139.5,78.871Z" transform="translate(-71.5 -71.5)" fill="#08488c"/>
</svg>
