<svg xmlns="http://www.w3.org/2000/svg" width="28" height="28" viewBox="0 0 28 28">
  <g id="Octicons" transform="translate(0 -1)">
    <g id="issue-opened" transform="translate(0 1)">
      <path id="Shape" d="M14,3.6A11.4,11.4,0,1,1,2.6,15,11.421,11.421,0,0,1,14,3.6ZM14,1A14,14,0,1,0,28,15,14.015,14.015,0,0,0,14,1Zm2,6H12V17h4Zm0,12H12v4h4Z" transform="translate(0 -1)" fill="#08488c" fill-rule="evenodd"/>
    </g>
  </g>
</svg>
