<svg xmlns="http://www.w3.org/2000/svg" width="14.195" height="20.11" viewBox="0 0 14.195 20.11">
  <path id="Path_4" data-name="Path 4" d="M29.2,26.138V18.252a1.972,1.972,0,1,0-3.943,0v7.886a1.972,1.972,0,1,0,3.943,0Zm-2.366,0V18.252a.394.394,0,0,1,.789,0v7.886a.394.394,0,0,1-.789,0Zm-2.366,0V22.984a1.972,1.972,0,1,0-3.943,0v3.155a1.972,1.972,0,1,0,3.943,0Zm-2.366,0V22.984a.394.394,0,1,1,.789,0v3.155a.394.394,0,1,1-.789,0Zm-2.366,0V24.955a1.972,1.972,0,1,0-3.943,0v1.183a1.972,1.972,0,1,0,3.943,0Zm-2.366,0V24.955a.394.394,0,1,1,.789,0v1.183a.394.394,0,1,1-.789,0Zm-1.577-14.2h4.337a.789.789,0,1,0,0-1.577H15.789a.789.789,0,1,0,0,1.577Zm0-2.366h1.577a.789.789,0,0,0,0-1.577H15.789a.789.789,0,1,0,0,1.577Zm7.374,1.144c-.039-.039-.039-.079-.079-.118a.839.839,0,0,0-1.1,0c-.039.039-.079.079-.079.118-.039.039-.039.079-.079.158-.039.039-.039.079-.039.158v.315c0,.039.039.079.039.158,0,.039.039.079.079.118s.039.079.079.118a.75.75,0,0,0,.513.2.779.779,0,0,0,.552-.237c.039-.039.079-.079.079-.118.039-.039.039-.079.079-.118s.039-.079.039-.158V11c0-.039-.039-.079-.039-.158,0-.039-.039-.079-.039-.118Z" transform="translate(-15 -8)" fill="#08488c"/>
</svg>
