<svg xmlns="http://www.w3.org/2000/svg" width="16.625" height="19" viewBox="0 0 16.625 19">
  <path id="Icon_awesome-calendar-check" data-name="Icon awesome-calendar-check" d="M16.18,5.938H.445A.445.445,0,0,1,0,5.492V4.156A1.781,1.781,0,0,1,1.781,2.375H3.563V.445A.445.445,0,0,1,4.008,0H5.492a.445.445,0,0,1,.445.445v1.93h4.75V.445A.445.445,0,0,1,11.133,0h1.484a.445.445,0,0,1,.445.445v1.93h1.781a1.781,1.781,0,0,1,1.781,1.781V5.492A.445.445,0,0,1,16.18,5.938ZM.445,7.125H16.18a.445.445,0,0,1,.445.445v9.648A1.781,1.781,0,0,1,14.844,19H1.781A1.781,1.781,0,0,1,0,17.219V7.57A.445.445,0,0,1,.445,7.125Zm12.368,3.561L11.768,9.632a.445.445,0,0,0-.63,0L7.2,13.532,5.5,11.812a.445.445,0,0,0-.63,0L3.814,12.855a.445.445,0,0,0,0,.63l3.065,3.09a.445.445,0,0,0,.63,0l5.3-5.262a.445.445,0,0,0,0-.63Z" fill="#fff"/>
</svg>
