<svg xmlns="http://www.w3.org/2000/svg" xmlns:xlink="http://www.w3.org/1999/xlink" width="119.499" height="16.666" viewBox="0 0 119.499 16.666">
  <defs>
    <clipPath id="clip-path">
      <rect width="119.499" height="16.666" fill="none"/>
    </clipPath>
  </defs>
  <g id="Repeat_Grid_4" data-name="Repeat Grid 4" clip-path="url(#clip-path)">
    <g transform="translate(-687 -540)">
      <path id="f35e3bcbde3528bceb03a6a775c06def" d="M-53.782,57.683c-.623.443-4.617-2.367-5.382-2.374s-4.8,2.74-5.42,2.287.831-5.11.6-5.838-4.1-3.71-3.856-4.433,5.131-.791,5.753-1.234,2.272-5.033,3.037-5.027,2.34,4.622,2.955,5.075,5.5.6,5.733,1.327-3.685,3.647-3.927,4.371S-53.16,57.239-53.782,57.683Z" transform="translate(754.851 498.937)" fill="#f8b84e"/>
    </g>
    <g transform="translate(-663 -540)">
      <path id="f35e3bcbde3528bceb03a6a775c06def-2" data-name="f35e3bcbde3528bceb03a6a775c06def" d="M-53.782,57.683c-.623.443-4.617-2.367-5.382-2.374s-4.8,2.74-5.42,2.287.831-5.11.6-5.838-4.1-3.71-3.856-4.433,5.131-.791,5.753-1.234,2.272-5.033,3.037-5.027,2.34,4.622,2.955,5.075,5.5.6,5.733,1.327-3.685,3.647-3.927,4.371S-53.16,57.239-53.782,57.683Z" transform="translate(754.851 498.937)" fill="#f8b84e"/>
    </g>
    <g transform="translate(-639 -540)">
      <path id="f35e3bcbde3528bceb03a6a775c06def-3" data-name="f35e3bcbde3528bceb03a6a775c06def" d="M-53.782,57.683c-.623.443-4.617-2.367-5.382-2.374s-4.8,2.74-5.42,2.287.831-5.11.6-5.838-4.1-3.71-3.856-4.433,5.131-.791,5.753-1.234,2.272-5.033,3.037-5.027,2.34,4.622,2.955,5.075,5.5.6,5.733,1.327-3.685,3.647-3.927,4.371S-53.16,57.239-53.782,57.683Z" transform="translate(754.851 498.937)" fill="#f8b84e"/>
    </g>
    <g transform="translate(-615 -540)">
      <path id="f35e3bcbde3528bceb03a6a775c06def-4" data-name="f35e3bcbde3528bceb03a6a775c06def" d="M-53.782,57.683c-.623.443-4.617-2.367-5.382-2.374s-4.8,2.74-5.42,2.287.831-5.11.6-5.838-4.1-3.71-3.856-4.433,5.131-.791,5.753-1.234,2.272-5.033,3.037-5.027,2.34,4.622,2.955,5.075,5.5.6,5.733,1.327-3.685,3.647-3.927,4.371S-53.16,57.239-53.782,57.683Z" transform="translate(754.851 498.937)" fill="#f8b84e"/>
    </g>
    <g transform="translate(-591 -540)">
      <path id="f35e3bcbde3528bceb03a6a775c06def-5" data-name="f35e3bcbde3528bceb03a6a775c06def" d="M-53.782,57.683c-.623.443-4.617-2.367-5.382-2.374s-4.8,2.74-5.42,2.287.831-5.11.6-5.838-4.1-3.71-3.856-4.433,5.131-.791,5.753-1.234,2.272-5.033,3.037-5.027,2.34,4.622,2.955,5.075,5.5.6,5.733,1.327-3.685,3.647-3.927,4.371S-53.16,57.239-53.782,57.683Z" transform="translate(754.851 498.937)" fill="#f8b84e"/>
    </g>
  </g>
</svg>
